<svg width="32" height="32" viewBox="0 0 32 32" fill="none" xmlns="http://www.w3.org/2000/svg">
<path fill-rule="evenodd" clip-rule="evenodd" d="M16 0C7.16357 0 0 7.16345 0 16C0 24.8365 7.16357 32 16 32C24.8364 32 32 24.8365 32 16C32 7.16345 24.8364 0 16 0ZM15.5542 13.5586L15.521 13.005C15.4199 11.5701 16.3042 10.2594 17.7031 9.75098C18.2178 9.57019 19.0908 9.54755 19.6616 9.70575C19.8857 9.77356 20.311 9.99951 20.6128 10.2029L21.1616 10.5757L21.7656 10.3837C22.1016 10.282 22.5493 10.1125 22.7505 9.99951C22.9409 9.89783 23.1089 9.84137 23.1089 9.87524C23.1089 10.0673 22.6948 10.7227 22.3477 11.0842C21.8774 11.5927 22.0122 11.6378 22.9634 11.2989C23.5342 11.1068 23.5454 11.1068 23.4331 11.3215C23.3662 11.4344 23.019 11.8299 22.6499 12.1915C22.0229 12.8129 21.9897 12.8807 21.9897 13.4005C21.9897 14.2026 21.6089 15.8748 21.2285 16.79C20.5234 18.5074 19.0127 20.2813 17.502 21.174C15.3755 22.4281 12.5439 22.7444 10.1602 22.01C9.36523 21.7615 8 21.1287 8 21.0157C8 20.9819 8.41406 20.9366 8.91748 20.9254C9.96973 20.9028 11.022 20.609 11.917 20.0892L12.5215 19.7277L11.8276 19.4904C10.8428 19.1515 9.9585 18.3719 9.73486 17.6375C9.66748 17.4001 9.68994 17.3889 10.3169 17.3889L10.9658 17.3776L10.4175 17.1177C9.76807 16.79 9.17529 16.2364 8.88428 15.6714C8.67139 15.2647 8.40283 14.2365 8.48145 14.1575C8.50342 14.1235 8.73877 14.1913 9.00732 14.2817C9.7793 14.5642 9.88037 14.4964 9.43262 14.0219C8.59326 13.1631 8.33594 11.8864 8.73877 10.6774L8.92871 10.1351L9.66748 10.8695C11.1782 12.3497 12.958 13.231 14.9946 13.4908L15.5542 13.5586Z" fill="#121212"/>
</svg>
